…
overall_df
```

    ## # A tibble: 72 x 7
    ##    year  month total_ride_mill~ total_passenger~ total_fare_mill~ mean_fare
    ##    <chr> <chr>            <dbl>            <dbl>            <dbl>     <dbl>
    ##  1 2009  01                14.1             24.0             145.      10.3
    ##  2 2009  02                13.4             22.5             140.      10.5
    ##  3 2009  03                14.4             24.2             155.      10.7
    ##  4 2009  04                14.3             24.1             153.      10.7
    ##  5 2009  05                14.8             25.1             160.      10.8
    ##  6 2009  06                14.2             23.9             154.      10.9
    ##  7 2009  07                13.6             23.1             148.      10.9
    ##  8 2009  08                13.7             23.4             149.      10.9
    ##  9 2009  09                14.0             23.5             156.      11.1
    ## 10 2009  10                15.6             26.2             172.      11.0
    ## # ... with 62 more rows, and 1 more variable: median_fare <dbl>
…
